{
  "name": "discourse-events-calendar-icons",
  "license_url": "https://framagit.org/oca/discourse-events-calendar-icons/blob/master/LICENSE",
  "about_url": "https://framagit.org/oca/discourse-events-calendar-icons/blob/master/README.md",
  "component": true,
  "assets": {
  },
  "color_schemes": {
  }
}
